<?xml version="1.0" encoding="utf-8"?>
<!-- Generator: Adobe Illustrator 16.0.0, SVG Export Plug-In . SVG Version: 6.00 Build 0)  -->
<!DOCTYPE svg PUBLIC "-//W3C//DTD SVG 1.1//EN" "http://www.w3.org/Graphics/SVG/1.1/DTD/svg11.dtd">
<svg version="1.1" id="Layer_1" xmlns="http://www.w3.org/2000/svg" xmlns:xlink="http://www.w3.org/1999/xlink" x="0px" y="0px"
	 width="64px" height="64px" viewBox="0 0 64 64" enable-background="new 0 0 64 64" xml:space="preserve">
<g>
	<defs>
		<rect id="SVGID_1_" width="64" height="64"/>
	</defs>
	<clipPath id="SVGID_2_">
		<use xlink:href="#SVGID_1_"  overflow="visible"/>
	</clipPath>
	<g clip-path="url(#SVGID_2_)">
		<path fill="#E95F38" d="M17.399,56.5V11.236h23.314c4.319,0,7.625,0.372,9.912,1.112c2.282,0.742,4.125,2.113,5.525,4.122
			c1.397,2.008,2.098,4.451,2.098,7.333c0,2.511-0.534,4.676-1.606,6.498c-1.07,1.823-2.542,3.299-4.419,4.433
			c-1.19,0.723-2.832,1.316-4.912,1.789c1.665,0.559,2.881,1.112,3.643,1.67c0.516,0.372,1.258,1.164,2.234,2.381
			c0.979,1.215,1.633,2.153,1.96,2.812L61.923,56.5H46.118l-7.477-13.83c-0.945-1.793-1.789-2.956-2.531-3.488
			c-1.01-0.699-2.149-1.051-3.426-1.051h-1.239V56.5H17.399L17.399,56.5z M31.445,29.574h5.901c0.638,0,1.874-0.206,3.706-0.617
			c0.927-0.187,1.685-0.657,2.271-1.419c0.583-0.76,0.875-1.637,0.875-2.626c0-1.461-0.463-2.581-1.386-3.364
			c-0.926-0.781-2.666-1.176-5.22-1.176h-6.146V29.574L31.445,29.574z"/>
		<path fill="#E95F38" d="M-35.843,7.512h15.824l11.025,35.251L1.893,7.512h15.362L-0.935,56.5h-16.408L-35.843,7.512z"/>
		<path fill="#4F575D" d="M12.858,53.134V7.5h23.504c4.359,0,7.69,0.374,9.993,1.12c2.302,0.748,4.162,2.133,5.57,4.155
			c1.412,2.022,2.12,4.488,2.12,7.396c0,2.532-0.54,4.715-1.619,6.552c-1.082,1.838-2.569,3.326-4.455,4.468
			c-1.205,0.727-2.854,1.328-4.953,1.805c1.676,0.561,2.902,1.122,3.673,1.685c0.518,0.376,1.269,1.173,2.255,2.396
			c0.986,1.227,1.643,2.17,1.976,2.835l6.826,13.223H41.816l-7.541-13.944c-0.954-1.805-1.805-2.975-2.549-3.517
			c-1.02-0.709-2.168-1.059-3.455-1.059h-1.245v18.52H12.858z M27.026,25.992h5.943c0.644,0,1.889-0.21,3.738-0.623
			c0.933-0.187,1.695-0.665,2.289-1.435c0.59-0.769,0.884-1.648,0.884-2.644c0-1.473-0.464-2.604-1.4-3.395
			c-0.932-0.789-2.686-1.183-5.263-1.183h-6.19V25.992L27.026,25.992z"/>
		<path fill="#E95F38" d="M54.112,7.512h39.73V16.7c-3.452,3.123-6.339,6.495-8.652,10.125c-2.809,4.411-5.026,9.324-6.65,14.736
			c-1.295,4.211-2.16,9.192-2.608,14.937H62.365c1.07-7.996,2.753-14.703,5.046-20.115c2.293-5.414,5.927-11.206,10.896-17.376
			H54.112V7.512L54.112,7.512z"/>
	</g>
</g>
</svg>
