<?xml version="1.0" encoding="utf-8"?>
<!-- Generator: Adobe Illustrator 16.0.0, SVG Export Plug-In . SVG Version: 6.00 Build 0)  -->
<!DOCTYPE svg PUBLIC "-//W3C//DTD SVG 1.1//EN" "http://www.w3.org/Graphics/SVG/1.1/DTD/svg11.dtd">
<svg version="1.1" id="Capa_1" xmlns="http://www.w3.org/2000/svg" xmlns:xlink="http://www.w3.org/1999/xlink" x="0px" y="0px"
	 width="300px" height="114px" viewBox="0 0 300 114" enable-background="new 0 0 300 114" xml:space="preserve">
<g>
	<path fill="#004B8D" d="M134.58,54.505c0-3.122,0.558-4.236-2.936-6.095l0,0l-2.415-1.188v-2.155h24.077v2.155l-2.453,0.967l0,0
		c-3.642,1.486-3.642,1.895-3.567,6.316l0,0l0.037,17.798l-0.892,0.854l0,0c-4.198,1.077-14.008,3.752-22.851,3.752
		c-20.287,0-30.282-10.515-30.282-33.254c0-24.45,14.119-35.039,32.66-35.039c4.979,0,14.008,0,20.287,5.312
		c2.081,1.747,2.267,3.717,2.267,4.497c0,1.485-0.297,1.783-0.594,2.377l0,0l-4.496,8.732h-1.673l0,0
		c0-4.311-5.016-15.791-18.058-15.791c-15.123,0-15.866,10.552-15.866,28.387c0,15.606,1.634,29.651,19.693,29.651
		c5.833,0,6.911-3.084,7.06-6.539C134.58,65.243,134.58,56.251,134.58,54.505L134.58,54.505L134.58,54.505z"/>
	<path fill="#004B8D" d="M159.326,73.454l4.311-1.746l0,0c3.529-1.375,3.529-3.938,3.529-9.624l0,0V21.101l0,0
		c0-3.158-0.892-4.719-3.344-6.391l0,0l-3.939-2.639V9.917h17.874l1.077,0.668l0,0c1.969,2.639,6.057,9.735,11.556,17.167l0,0
		l18.95,25.787l0,0c0.78,1.076,1.189,1.561,1.561,1.561c0.78,0,0.78-0.967,0.78-2.75l0,0V21.175l0,0
		c0-4.496-0.074-5.388-3.901-6.948l0,0l-5.61-2.155V9.917h22.479v2.154l-2.861,1.078l0,0c-4.198,1.672-5.016,2.638-5.016,9.104l0,0
		v38.643l0,0c0,5.908,0.111,11.89,0.111,13.934l0,0l-0.668,0.78h-5.499l-1.078-0.78l0,0c-0.892-1.077-5.982-8.249-11.184-15.197l0,0
		L175.489,28.94l0,0c-1.263-1.672-1.857-2.563-2.341-2.563c-0.892,0-0.892,1.003-0.892,2.378l0,0v35.076l0,0
		c0,4.718,0,6.205,4.125,7.579l0,0l5.796,2.044v2.155h-22.851V73.454L159.326,73.454z"/>
	<path fill="#004B8D" d="M230.406,73.454l4.31-1.449l0,0c3.233-1.077,3.344-2.86,3.344-9.028l0,0V20.581l0,0
		c0-4.683,0-5.871-3.344-6.948l0,0l-4.31-1.562V9.917h32.511l0,0c11.371,0,22.517,2.452,22.517,17.352
		c0,13.637-10.18,22.071-26.083,22.071c-0.669,0-1.56-0.111-2.155-0.111l0,0l-1.449-3.53l0.78-0.78l0,0
		c7.134-0.186,15.792-3.121,14.565-16.906c-0.966-10.738-4.088-12.745-12.893-12.745c-5.982,0-6.392,0.892-6.392,3.345l0,0v44.365
		l0,0c0,6.576-0.111,7.951,3.827,9.028l0,0l5.091,1.449v2.155h-30.319V73.454L230.406,73.454z"/>
	<polygon fill="#004B8D" points="299.943,85.79 93.3,85.79 93.3,84.416 299.943,84.416 299.943,85.79 	"/>
	<path fill="#F68A33" d="M52.948,42.429c0,6.056-4.905,10.961-10.999,10.961c-6.056,0-10.961-4.905-10.961-10.961
		c0-6.057,4.905-10.962,10.961-10.962C48.043,31.467,52.948,36.372,52.948,42.429L52.948,42.429L52.948,42.429z"/>
	<path fill="#F68A33" d="M23.706,24.11H0l4.793,14.677h11.815V38.75l0,0c11.965,0,21.662-9.698,21.7-21.7l0,0l0,0l0,0V5.271
		L23.706,0.479V24.11L23.706,24.11z"/>
	<path fill="#F68A33" d="M23.631,60.71v23.668l14.677-4.756V67.807h-0.038l0,0c0-11.965-9.697-21.662-21.699-21.7l0,0l0,0l0,0H4.793
		L0,60.71H23.631L23.631,60.71z"/>
	<path fill="#F68A33" d="M60.23,60.747h23.706l-4.831-14.641H67.327H67.29l0,0c-11.964,0.038-21.662,9.735-21.662,21.7l0,0l0,0
		v0.037v11.741l14.603,4.793V60.747L60.23,60.747z"/>
	<path fill="#F68A33" d="M60.268,24.185V0.517l-14.64,4.755v11.816l0,0l0,0c0.037,11.964,9.735,21.662,21.699,21.699l0,0h0.037l0,0
		h11.741l4.831-14.603H60.268L60.268,24.185z"/>
	<path fill="#004B8D" d="M294.539,10.994c2.266,0,4.124,1.82,4.124,4.422c0,2.563-1.857,4.421-4.124,4.421v1.04
		c3.009,0,5.461-2.451,5.461-5.461c0-3.047-2.453-5.499-5.461-5.499V10.994L294.539,10.994z M294.539,16.232v-1.3h0.037l0,0
		c0.706,0,1.263-0.111,1.263-0.929c0-0.743-0.669-0.854-1.227-0.854l0,0h-0.073v-0.892h0.185l0,0c1.486,0,2.304,0.52,2.304,1.82
		c0,1.077-0.631,1.598-1.635,1.672l0,0l1.673,2.75h-1.189L294.539,16.232z M294.539,19.837c-2.304,0-4.162-1.857-4.162-4.421
		c0-2.602,1.858-4.422,4.162-4.422l0,0V9.917l0,0c-3.047,0-5.5,2.452-5.5,5.499c0,3.01,2.452,5.461,5.5,5.461l0,0l0,0l0,0V19.837
		L294.539,19.837L294.539,19.837L294.539,19.837L294.539,19.837z M294.539,12.258v0.892h-0.966l0,0v1.783h0.966v1.3l-0.261-0.408
		h-0.706V18.5h-1.152l0,0v-6.242H294.539z"/>
	<g>
		<path fill="#004B8D" d="M98.282,113.521c-2.323,0-3.761-0.657-4.292-0.96c-0.479-0.556-0.808-2.373-0.808-4.09
			c0.177-0.327,0.757-0.354,0.959-0.075c0.505,1.641,2.196,3.963,4.342,3.963c1.868,0,2.726-1.287,2.726-2.55
			c0-2.044-1.918-3.256-3.433-4.014c-1.818-0.908-3.812-2.423-3.812-4.923c-0.026-2.852,2.196-4.82,5.856-4.82
			c0.833,0,1.868,0.101,2.877,0.403c0.328,0.102,0.556,0.151,0.858,0.202c0.202,0.556,0.454,1.918,0.454,3.609
			c-0.126,0.304-0.757,0.329-0.984,0.076c-0.429-1.288-1.515-3.13-3.332-3.13c-1.667,0-2.575,1.085-2.575,2.348
			c0,1.161,1.035,2.221,2.297,2.877l1.666,0.884c1.565,0.833,3.56,2.297,3.56,5.074C104.644,111.502,102.094,113.521,98.282,113.521
			z"/>
		<path fill="#004B8D" d="M125.243,103.02c0,0.707,0.025,0.757,0.707,0.757h1.742c1.313,0,1.616-0.176,1.868-1.388l0.126-0.632
			c0.177-0.201,0.808-0.201,0.934,0.025c-0.05,0.809-0.076,1.717-0.076,2.676c0,0.96,0.025,1.869,0.076,2.676
			c-0.126,0.228-0.757,0.253-0.934,0.025l-0.126-0.631c-0.252-1.212-0.555-1.413-1.868-1.413h-1.742
			c-0.682,0-0.707,0.024-0.707,0.782v3.004c0,1.161,0.101,1.97,0.404,2.398c0.328,0.454,0.808,0.656,2.651,0.656
			c2.196,0,3.054-0.076,4.443-2.928c0.202-0.278,0.833-0.178,0.934,0.126c-0.102,1.312-0.707,3.356-1.061,4.039
			c-1.338-0.051-3.761-0.076-5.832-0.076h-3.281c-1.212,0-2.449,0.025-4.342,0.076c-0.202-0.151-0.202-0.757,0-0.884l1.186-0.177
			c1.136-0.177,1.288-0.328,1.288-2.65v-9.417c0-2.297-0.151-2.448-1.288-2.676l-0.631-0.126c-0.228-0.151-0.202-0.731,0.05-0.884
			c1.187,0.051,2.424,0.076,3.635,0.076h5.352c1.615,0,3.055-0.025,3.382-0.076c0.025,0.404,0.202,2.222,0.328,3.913
			c-0.101,0.278-0.682,0.328-0.934,0.101c-0.277-0.883-0.631-1.64-0.959-1.993c-0.479-0.48-1.237-0.783-2.474-0.783h-2.02
			c-0.833,0-0.833,0.051-0.833,0.984V103.02z"/>
		<path fill="#004B8D" d="M163.84,110.265c0,1.061,0.05,1.565,0.53,1.666c0.101,0.101,0.076,0.53-0.076,0.606
			c-0.429,0.075-1.085,0.151-1.767,0.379c-0.884,0.277-3.055,0.605-4.468,0.605c-1.717,0-3.181-0.178-4.973-0.884
			c-2.954-1.187-4.973-3.988-4.973-7.623c0-3.156,1.414-5.934,4.442-7.625c1.717-0.934,3.762-1.337,5.908-1.337
			c2.802,0,4.19,0.605,4.998,0.605c0.076,0.757,0.101,2.524,0.354,4.064c-0.102,0.277-0.783,0.303-0.959,0.051
			c-0.808-2.373-2.398-3.56-4.746-3.56c-4.014,0-5.958,3.332-5.958,7.32c0,3.61,1.237,5.755,2.877,6.866
			c1.212,0.808,2.525,0.959,3.459,0.959c1.438,0,1.742-0.277,1.742-1.918v-1.591c0-1.363-0.151-1.515-1.363-1.691l-1.111-0.151
			c-0.277-0.151-0.277-0.731,0-0.884c1.792,0.051,3.029,0.076,4.267,0.076c1.212,0,2.448-0.025,3.306-0.076
			c0.203,0.152,0.203,0.732,0,0.884l-0.58,0.102c-0.757,0.126-0.909,0.378-0.909,1.741V110.265z"/>
		<path fill="#004B8D" d="M181.763,100.092c0-2.349-0.151-2.5-1.288-2.728l-0.631-0.126c-0.202-0.15-0.227-0.706,0.05-0.858
			c1.211,0.051,2.474,0.076,3.686,0.076c1.237,0,2.474-0.025,3.686-0.076c0.202,0.152,0.202,0.708,0,0.858l-0.605,0.102
			c-1.136,0.202-1.288,0.403-1.288,2.752v5.831c0,2.953,0.328,6.21,4.165,6.21c3.232,0,4.216-2.827,4.216-6.285v-3.056
			c0-2.044-0.101-3.963-0.378-4.619c-0.227-0.53-0.783-0.682-1.464-0.809l-0.682-0.126c-0.202-0.201-0.151-0.706,0-0.858
			c1.363,0.051,2.348,0.076,3.383,0.076c0.935,0,1.868-0.025,2.828-0.076c0.151,0.152,0.202,0.657,0,0.858l-0.455,0.102
			c-0.656,0.151-1.135,0.303-1.363,0.833c-0.277,0.656-0.378,2.575-0.378,4.619v2.827c0,2.373-0.228,4.544-1.616,6.085
			c-1.111,1.186-2.954,1.817-4.998,1.817c-1.919,0-3.636-0.304-4.999-1.414c-1.313-1.085-1.868-2.953-1.868-5.706V100.092z"/>
		<path fill="#004B8D" d="M213.949,100.546c0-2.524-0.051-2.803-1.111-2.954l-0.682-0.101c-0.253-0.127-0.253-0.757,0.05-0.884
			c1.893-0.127,3.862-0.228,6.261-0.228c2.146,0,3.988,0.329,4.948,0.91c1.464,0.857,2.222,2.12,2.222,3.735
			c0,2.247-1.515,3.206-2.677,3.786c-0.252,0.126-0.252,0.278-0.126,0.556c1.667,3.383,2.701,5.275,3.913,6.312
			c0.656,0.529,1.313,0.681,1.692,0.706c0.227,0.126,0.227,0.505,0.101,0.657c-0.404,0.176-1.212,0.227-1.994,0.227
			c-2.323,0-3.787-0.832-4.898-2.65c-0.807-1.338-1.388-2.575-1.968-3.913c-0.303-0.682-0.707-0.884-1.338-0.884
			c-0.884,0-0.934,0.051-0.934,0.555v3.106c0,2.322,0.151,2.498,1.287,2.701l0.682,0.126c0.177,0.127,0.177,0.732,0,0.884
			c-1.338-0.051-2.499-0.076-3.711-0.076c-1.262,0-2.373,0.025-3.685,0.076c-0.202-0.151-0.202-0.757,0-0.884l0.681-0.126
			c1.136-0.203,1.288-0.379,1.288-2.701V100.546z M217.408,103.752c0,0.884,0.076,0.959,1.565,0.959
			c0.909,0,1.438-0.227,1.918-0.707c0.429-0.43,0.909-1.236,0.909-2.727c0-2.271-1.338-3.735-3.308-3.735
			c-1.035,0-1.085,0.075-1.085,1.287V103.752z"/>
		<path fill="#004B8D" d="M259.337,104.711c0,5.503-3.686,8.811-9.113,8.811c-5.074,0-8.759-3.333-8.759-8.608
			c0-4.999,3.736-8.86,9.012-8.86C255.728,96.053,259.337,99.587,259.337,104.711z M250.274,97.214
			c-3.105,0-4.771,2.903-4.771,7.118c0,3.08,1.085,8.027,5.2,8.027c3.308,0,4.595-3.23,4.595-7.32
			C255.298,100.723,253.405,97.214,250.274,97.214z"/>
		<path fill="#004B8D" d="M279.406,113.521c-2.322,0-3.761-0.657-4.292-0.96c-0.479-0.556-0.808-2.373-0.808-4.09
			c0.177-0.327,0.758-0.354,0.96-0.075c0.505,1.641,2.196,3.963,4.341,3.963c1.868,0,2.726-1.287,2.726-2.55
			c0-2.044-1.918-3.256-3.432-4.014c-1.818-0.908-3.812-2.423-3.812-4.923c-0.025-2.852,2.196-4.82,5.856-4.82
			c0.833,0,1.868,0.101,2.878,0.403c0.327,0.102,0.555,0.151,0.857,0.202c0.203,0.556,0.455,1.918,0.455,3.609
			c-0.126,0.304-0.757,0.329-0.985,0.076c-0.428-1.288-1.514-3.13-3.332-3.13c-1.666,0-2.575,1.085-2.575,2.348
			c0,1.161,1.035,2.221,2.297,2.877l1.666,0.884c1.565,0.833,3.56,2.297,3.56,5.074
			C285.768,111.502,283.218,113.521,279.406,113.521z"/>
	</g>
</g>
</svg>
