<?xml version="1.0" encoding="utf-8"?>
<!-- Generator: Adobe Illustrator 16.0.0, SVG Export Plug-In . SVG Version: 6.00 Build 0)  -->
<!DOCTYPE svg PUBLIC "-//W3C//DTD SVG 1.1//EN" "http://www.w3.org/Graphics/SVG/1.1/DTD/svg11.dtd">
<svg version="1.1" id="Layer_1" xmlns="http://www.w3.org/2000/svg" xmlns:xlink="http://www.w3.org/1999/xlink" x="0px" y="0px"
	 width="167px" height="34px" viewBox="0 0 167 34" enable-background="new 0 0 167 34" xml:space="preserve">
<g>
	<path fill="#E95F38" d="M117.201,33.318V3.831h15.187c2.814,0,4.968,0.242,6.457,0.725c1.487,0.483,2.688,1.377,3.601,2.685
		c0.91,1.308,1.367,2.899,1.367,4.777c0,1.636-0.349,3.047-1.047,4.234c-0.698,1.187-1.657,2.149-2.879,2.886
		c-0.776,0.471-1.845,0.859-3.2,1.167c1.085,0.363,1.877,0.725,2.373,1.088c0.336,0.242,0.82,0.757,1.456,1.55
		c0.638,0.792,1.064,1.402,1.277,1.832l4.413,8.544H135.91l-4.871-9.011c-0.615-1.168-1.165-1.925-1.648-2.273
		c-0.658-0.455-1.401-0.683-2.233-0.683h-0.806v11.967H117.201z M126.352,15.778h3.843c0.416,0,1.221-0.134,2.415-0.402
		c0.603-0.121,1.097-0.429,1.479-0.925c0.38-0.496,0.57-1.065,0.57-1.71c0-0.952-0.301-1.682-0.903-2.192
		c-0.604-0.51-1.737-0.765-3.4-0.765h-4.004V15.778z"/>
	<path fill="#E95F38" d="M82.517,1.405h10.308l7.183,22.965l7.091-22.965h10.008l-11.849,31.913H94.568L82.517,1.405z"/>
	<path fill="#4F575D" d="M114.243,31.126V1.397h15.312c2.839,0,5.01,0.244,6.509,0.73c1.501,0.487,2.712,1.39,3.63,2.707
		c0.92,1.318,1.38,2.924,1.38,4.818c0,1.649-0.352,3.071-1.054,4.268c-0.705,1.197-1.674,2.167-2.903,2.91
		c-0.785,0.474-1.859,0.866-3.226,1.176c1.092,0.366,1.89,0.731,2.392,1.097c0.337,0.244,0.826,0.765,1.469,1.562
		c0.642,0.799,1.07,1.414,1.287,1.847l4.448,8.614h-10.379l-4.912-9.085c-0.622-1.175-1.176-1.938-1.662-2.29
		c-0.664-0.461-1.412-0.691-2.251-0.691h-0.811v12.066H114.243z M123.472,13.444h3.872c0.419,0,1.23-0.136,2.435-0.406
		c0.608-0.122,1.104-0.433,1.491-0.934c0.385-0.5,0.576-1.074,0.576-1.723c0-0.959-0.303-1.696-0.912-2.21
		c-0.608-0.514-1.751-0.771-3.429-0.771h-4.033V13.444z"/>
	<path fill="#E95F38" d="M141.118,1.405H167v5.986c-2.249,2.033-4.129,4.231-5.636,6.596c-1.83,2.874-3.275,6.074-4.333,9.6
		c-0.843,2.743-1.407,5.987-1.699,9.73h-8.838c0.697-5.209,1.794-9.579,3.287-13.104c1.495-3.527,3.861-7.3,7.098-11.32h-15.761
		V1.405z"/>
	<path fill="#4D555B" stroke="#4D555B" stroke-width="0.8082" d="M3.548,31.359v1.871H0.012v-1.871h0.004v-27.7H0V1.788h3.548v1.872
		l0,0V31.359L3.548,31.359z"/>
	<path fill="#4D555B" stroke="#4D555B" stroke-width="0.4041" d="M18.65,9.74c-3.466,0-5.25,1.993-5.354,5.977V33.23H9.763V7.869
		h3.534v1.819c1.248-1.211,3.031-1.819,5.354-1.819c5.923,0,8.887,2.704,8.887,8.108V33.23H23.95V15.977
		C23.95,11.818,22.183,9.74,18.65,9.74z"/>
	<path fill="#4D555B" stroke="#4D555B" stroke-width="0.4128" d="M31.199,9.726v-1.91h1.805V1.603l3.611-1.326v7.54h9.346
		l-1.278,1.91h-8.067v15.663c0,4.281,1.822,6.423,5.468,6.423c2.051,0,3.521-0.672,4.407-2.016l2.069,2.122
		c-1.521,1.204-3.682,1.805-6.476,1.805c-6.051,0-9.079-2.776-9.079-8.334V9.726H31.199z"/>
	<path fill="#4D555B" stroke="#4D555B" stroke-width="0.4041" d="M50.962,33.23V7.869h3.533v1.768
		c1.213-1.178,2.962-1.768,5.25-1.768h0.104c2.736,0,4.85,0.572,6.341,1.715l-2.027,2.13c-0.867-1.316-2.306-1.975-4.314-1.975
		c-3.464,0-5.25,1.993-5.354,5.977V33.23H50.962z"/>
	<path fill="#4D555B" stroke="#4D555B" stroke-width="0.4041" d="M66.367,25.071c0-5.403,2.963-8.106,8.888-8.106h5.301v-0.987
		c0-4.159-1.768-6.237-5.301-6.237c-2.012,0-3.448,0.658-4.313,1.975l-2.027-2.13c1.453-1.144,3.567-1.715,6.34-1.715
		c5.923,0,8.888,2.704,8.888,8.108V33.23h-3.586v-1.819c-1.179,1.214-2.911,1.819-5.196,1.819h-0.105
		C69.331,33.23,66.367,30.512,66.367,25.071z M75.255,18.836c-3.57,0-5.354,2.077-5.354,6.234c0,4.193,1.784,6.288,5.354,6.288
		c3.534,0,5.301-2.095,5.301-6.288v-6.234H75.255z"/>
</g>
</svg>
